{
  "1": {
    "samspeed": 0.12,
    "samcostsss": 0,
    "samaccumulatedcost": 0,
    "petspeed": 0.12,
    "petcostsss": 0,
    "petaccumulatedcost": 0
  },
  "2": {
    "samspeed": 0.12,
    "samcostsss": "36784741",
    "samaccumulatedcost": "36784741",
    "petspeed": 0.33,
    "petcostsss": "17472752",
    "petaccumulatedcost": "17472752"
  },
  "3": {
    "samspeed": 0.34,
    "samcostsss": "55177111",
    "samaccumulatedcost": "91961852",
    "petspeed": 0.62,
    "petcostsss": "26209128",
    "petaccumulatedcost": "43681880"
  },
  "4": {
    "samspeed": 0.63,
    "samcostsss": "82425068",
    "samaccumulatedcost": "174386920",
    "petspeed": 1.06,
    "petcostsss": "39151907",
    "petaccumulatedcost": "82833787"
  },
  "5": {
    "samspeed": 1.08,
    "samcostsss": "121934604",
    "samaccumulatedcost": "296321524",
    "petspeed": 1.69,
    "petcostsss": "57918937",
    "petaccumulatedcost": "140752724"
  },
  "6": {
    "samspeed": 1.73,
    "samcostsss": "179155313",
    "samaccumulatedcost": "475476837",
    "petspeed": 2.63,
    "petcostsss": "85098773",
    "petaccumulatedcost": "225851497"
  },
  "7": {
    "samspeed": 2.68,
    "samcostsss": "260899182",
    "samaccumulatedcost": "736376019",
    "petspeed": 3.98,
    "petcostsss": "123927111",
    "petaccumulatedcost": "349778608"
  },
  "8": {
    "samspeed": 4.06,
    "samcostsss": "378746594",
    "samaccumulatedcost": "1115122613",
    "petspeed": 5.93,
    "petcostsss": "179904632",
    "petaccumulatedcost": "529683240"
  },
  "9": {
    "samspeed": 6.05,
    "samcostsss": "544959128",
    "samaccumulatedcost": "1660081741",
    "petspeed": 8.71,
    "petcostsss": "258855585",
    "petaccumulatedcost": "788538825"
  },
  "10": {
    "samspeed": 8.89,
    "samcostsss": "779972752",
    "samaccumulatedcost": "2440054493",
    "petspeed": 12.66,
    "petcostsss": "370487057",
    "petaccumulatedcost": "1159025882"
  },
  "11": {
    "samspeed": 12.92,
    "samcostsss": "1106948228",
    "samaccumulatedcost": "3547002721",
    "petspeed": 18.24,
    "petcostsss": "525800408",
    "petaccumulatedcost": "1684826290"
  },
  "12": {
    "samspeed": 18.61,
    "samcostsss": "1561307901",
    "samaccumulatedcost": "5108310622",
    "petspeed": 26.04,
    "petcostsss": "741621253",
    "petaccumulatedcost": "2426447543"
  },
  "13": {
    "samspeed": 26.58,
    "samcostsss": "2185967302",
    "samaccumulatedcost": "7294277924",
    "petspeed": 36.89,
    "petcostsss": "1038334468",
    "petaccumulatedcost": "3464782011"
  },
  "14": {
    "samspeed": 37.65,
    "samcostsss": "3038147138",
    "samaccumulatedcost": "10332425062",
    "petspeed": 51.87,
    "petcostsss": "1443119891",
    "petaccumulatedcost": "4907901902"
  },
  "15": {
    "samspeed": 52.93,
    "samcostsss": "4192779291",
    "samaccumulatedcost": "14525204353",
    "petspeed": 72.39,
    "petcostsss": "1991570163",
    "petaccumulatedcost": "6899472065"
  },
  "16": {
    "samspeed": 73.86,
    "samcostsss": "5743869209",
    "samaccumulatedcost": "20269073562",
    "petspeed": 100.29,
    "petcostsss": "2728337874",
    "petaccumulatedcost": "9627809939"
  },
  "17": {
    "samspeed": 102.34,
    "samcostsss": "7811307901",
    "samaccumulatedcost": "28080381463",
    "petspeed": 137.96,
    "petcostsss": "3710371253",
    "petaccumulatedcost": "13338181192"
  },
  "18": {
    "samspeed": 140.78,
    "samcostsss": "10545640326",
    "samaccumulatedcost": "38626021789",
    "petspeed": 188.45,
    "petcostsss": "5009179155",
    "petaccumulatedcost": "18347360347"
  },
  "19": {
    "samspeed": 192.29,
    "samcostsss": "14130790190",
    "samaccumulatedcost": "52756811979",
    "petspeed": 255.6,
    "petcostsss": "6712125340",
    "petaccumulatedcost": "25059485687"
  },
  "20": {
    "samspeed": 260.81,
    "samcostsss": "18794277929",
    "samaccumulatedcost": "71551089908",
    "petspeed": 344.24,
    "petcostsss": "8927282016",
    "petaccumulatedcost": "33986767703"
  },
  "21": {
    "samspeed": 351.27,
    "samcostsss": "24808583106",
    "samaccumulatedcost": "96359673014",
    "petspeed": 460.37,
    "petcostsss": "11784076975",
    "petaccumulatedcost": "45770844678"
  },
  "22": {
    "samspeed": 469.77,
    "samcostsss": "32498637602",
    "samaccumulatedcost": "128858310616",
    "petspeed": 611.35,
    "petcostsss": "15436852861",
    "petaccumulatedcost": "61207697539"
  },
  "23": {
    "samspeed": 623.83,
    "samcostsss": "42248637602",
    "samaccumulatedcost": "171106948218",
    "petspeed": 806.13,
    "petcostsss": "20068102861",
    "petaccumulatedcost": "81275800400"
  },
  "24": {
    "samspeed": 822.58,
    "samcostsss": "54500681198",
    "samaccumulatedcost": "225607629416",
    "petspeed": 1055.46,
    "petcostsss": "25887823569",
    "petaccumulatedcost": "107163623969"
  },
  "25": {
    "samspeed": 1077.0,
    "samcostsss": "69760899182",
    "samaccumulatedcost": "295368528598",
    "petspeed": 1323.27,
    "petcostsss": "33136427111",
    "petaccumulatedcost": "140300051080"
  },
  "26": {
    "samspeed": 1350.28,
    "samcostsss": "69760899182",
    "samaccumulatedcost": "365129427780",
    "petspeed": 1628.08,
    "petcostsss": "33136427111",
    "petaccumulatedcost": "173436478191"
  },
  "27": {
    "samspeed": 1661.31,
    "samcostsss": "69760899182",
    "samaccumulatedcost": "434890326962",
    "petspeed": 1831.11,
    "petcostsss": "33136427111",
    "petaccumulatedcost": "206572905302"
  },
  "28": {
    "samspeed": 1868.48,
    "samcostsss": "69760899182",
    "samaccumulatedcost": "504651226144",
    "petspeed": 2006.4,
    "petcostsss": "33136427111",
    "petaccumulatedcost": "239709332413"
  },
  "29": {
    "samspeed": 2047.35,
    "samcostsss": "69760899182",
    "samaccumulatedcost": "574412125326",
    "petspeed": 2161.22,
    "petcostsss": "33136427111",
    "petaccumulatedcost": "272845759524"
  },
  "30": {
    "samspeed": 2205.33,
    "samcostsss": "69760899182",
    "samaccumulatedcost": "644173024508",
    "petspeed": 2301.8,
    "petcostsss": "33136427111",
    "petaccumulatedcost": "305982186635"
  },
  "31": {
    "samspeed": 2348.77,
    "samcostsss": "69760899182",
    "samaccumulatedcost": "713933923690",
    "petspeed": 2433.47,
    "petcostsss": "33136427111",
    "petaccumulatedcost": "339118613746"
  },
  "32": {
    "samspeed": 2483.14,
    "samcostsss": "69760899182",
    "samaccumulatedcost": "783694822872",
    "petspeed": 2560.92,
    "petcostsss": "33136427111",
    "petaccumulatedcost": "372255040857"
  },
  "33": {
    "samspeed": 2613.19,
    "samcostsss": "69760899182",
    "samaccumulatedcost": "853455722054",
    "petspeed": 2688.33,
    "petcostsss": "33136427111",
    "petaccumulatedcost": "405391467968"
  },
  "34": {
    "samspeed": 2743.2,
    "samcostsss": "69760899182",
    "samaccumulatedcost": "923216621236",
    "petspeed": 2819.58,
    "petcostsss": "33136427111",
    "petaccumulatedcost": "438527895079"
  },
  "35": {
    "samspeed": 2877.13,
    "samcostsss": "69760899182",
    "samaccumulatedcost": "992977520418",
    "petspeed": 2870.56,
    "petcostsss": "33136427111",
    "petaccumulatedcost": "471664322190"
  },
  "36": {
    "samspeed": 2929.15,
    "samcostsss": "69760899182",
    "samaccumulatedcost": "1062738419600",
    "petspeed": 2916.88,
    "petcostsss": "33136427111",
    "petaccumulatedcost": "504800749301"
  },
  "37": {
    "samspeed": 2976.4,
    "samcostsss": "69760899182",
    "samaccumulatedcost": "1132499318782",
    "petspeed": 2959.89,
    "petcostsss": "33136427111",
    "petaccumulatedcost": "537937176412"
  },
  "38": {
    "samspeed": 3020.3,
    "samcostsss": "69760899182",
    "samaccumulatedcost": "1202260217964",
    "petspeed": 3000.68,
    "petcostsss": "33136427111",
    "petaccumulatedcost": "571073603523"
  },
  "39": {
    "samspeed": 3061.91,
    "samcostsss": "69760899182",
    "samaccumulatedcost": "1272021117146",
    "petspeed": 3040.03,
    "petcostsss": "33136427111",
    "petaccumulatedcost": "604210030634"
  },
  "40": {
    "samspeed": 3102.07,
    "samcostsss": "69760899182",
    "samaccumulatedcost": "1341782016328",
    "petspeed": 3078.56,
    "petcostsss": "33136427111",
    "petaccumulatedcost": "637346457745"
  },
  "41": {
    "samspeed": 3141.38,
    "samcostsss": "69760899182",
    "samaccumulatedcost": "1411542915510",
    "petspeed": 3116.73,
    "petcostsss": "33136427111",
    "petaccumulatedcost": "670482884856"
  },
  "42": {
    "samspeed": 3180.34,
    "samcostsss": "69760899182",
    "samaccumulatedcost": "1481303814692",
    "petspeed": 3154.9,
    "petcostsss": "33136427111",
    "petaccumulatedcost": "703619311967"
  },
  "43": {
    "samspeed": 3219.29,
    "samcostsss": "69760899182",
    "samaccumulatedcost": "1551064713874",
    "petspeed": 3193.33,
    "petcostsss": "33136427111",
    "petaccumulatedcost": "736755739078"
  },
  "44": {
    "samspeed": 3258.5,
    "samcostsss": "69760899182",
    "samaccumulatedcost": "1620825613056",
    "petspeed": 3232.22,
    "petcostsss": "33136427111",
    "petaccumulatedcost": "769892166189"
  },
  "45": {
    "samspeed": 3298.18,
    "samcostsss": "69760899182",
    "samaccumulatedcost": "1690586512238",
    "petspeed": 3271.73,
    "petcostsss": "33136427111",
    "petaccumulatedcost": "803028593300"
  },
  "46": {
    "samspeed": 3338.5,
    "samcostsss": "69760899182",
    "samaccumulatedcost": "1760347411420",
    "petspeed": 3311.98,
    "petcostsss": "33136427111",
    "petaccumulatedcost": "836165020411"
  },
  "47": {
    "samspeed": 3379.57,
    "samcostsss": "69760899182",
    "samaccumulatedcost": "1830108310602",
    "petspeed": 3353.15,
    "petcostsss": "33136427111",
    "petaccumulatedcost": "869301447522"
  },
  "48": {
    "samspeed": 3421.58,
    "samcostsss": "69760899182",
    "samaccumulatedcost": "1899869209784",
    "petspeed": 3395.31,
    "petcostsss": "33136427111",
    "petaccumulatedcost": "902437874633"
  },
  "49": {
    "samspeed": 3464.6,
    "samcostsss": "69760899182",
    "samaccumulatedcost": "1969630108966",
    "petspeed": 3437.47,
    "petcostsss": "33136427111",
    "petaccumulatedcost": "935574301744"
  },
  "50": {
    "samspeed": 3508.67,
    "samcostsss": "69760899182",
    "samaccumulatedcost": "2039391008148",
    "petspeed": 3479.63,
    "petcostsss": "33136427111",
    "petaccumulatedcost": "968710728855"
  }
}